…
# Compound return, with immediate annuities
FINAL_VALUE_CMP_IMM_ANNUITIES <- get_final_value(
  n_per = .n_per,
  v_0 = .v_0,
  exp_return = .exp_return,
  compound = .compound,
  x_yearly = .x_yearly,
  immediate = .immediate
)
FINAL_VALUE_CMP_IMM_ANNUITIES
#> # A tibble: 30 × 2
#>    period final_value
#>     <int>       <dbl>
#>  1      1      18700.
#>  2      2      33770.
#>  3      3      50347.
#>  4      4      68582.
#>  5      5      88640.
#>  6      6     110704.
#>  7      7     134974.
#>  8      8     161672.
#>  9      9     191039.
#> 10     10     223343.
#> # … with 20 more rows
```
…
